{
  "tasks": [],
  "users": [
    {
      "username": "nowy23cc",
      "id": 11
    },
    {
      "username": "dddssssssssasasssss",
      "id": 12
    },
    {
      "username": "dddsssssssssssasasssss",
      "id": 13
    },
    {
      "username": "dddsssss",
      "id": 14
    },
    {
      "username": "dddssssssssssaaasa",
      "id": 15
    },
    {
      "username": "dddssssssssssaaasa6uuuu",
      "id": 19
    },
    {
      "username": "sss",
      "id": 20
    },
    {
      "username": "ssssssssssss23xx",
      "id": 21
    }
  ]
}